<?xml version="1.0" encoding="utf-8" ?>
<svg xmlns="http://www.w3.org/2000/svg" xmlns:xlink="http://www.w3.org/1999/xlink" width="55" height="59">
	<defs>
		<clipPath id="clip_0">
			<rect x="-466" y="-1078" width="1920" height="3495" clip-rule="evenodd"/>
		</clipPath>
	</defs>
	<g clip-path="url(#clip_0)">
		<path fill="rgb(0,165,80)" stroke="none" transform="translate(18.6973 15.3686)" d="M19.5563 0L34.9016 0C35.3939 0 35.7931 0.399184 35.7943 0.891429L35.7943 25.009C35.7943 25.5012 35.3939 25.8992 34.9029 25.8992C34.4118 25.8992 34.0127 25.5 34.0127 25.009L34.0127 20.4869C31.7498 20.7784 29.8151 22.1743 28.8147 24.2388L35.5322 30.9563C35.88 31.3029 35.88 31.8673 35.5322 32.2139L24.5718 43.1743C24.4016 43.3445 24.1739 43.4351 23.9424 43.4351C23.8286 43.4351 23.7122 43.4131 23.602 43.3678C23.269 43.2306 23.0522 42.9049 23.0522 42.5449L23.0522 36.8584L14.0767 36.8584C13.5845 36.8584 13.1853 36.4592 13.1853 35.9669C13.1853 35.4759 13.5857 35.0767 14.0767 35.0767L23.9424 35.0767C24.4347 35.0767 24.8339 35.4771 24.8339 35.9669L24.8339 40.3935L33.6441 31.5833L24.8339 22.7731L24.8339 27.1996C24.8339 27.6918 24.4335 28.0898 23.9424 28.0898L0.890204 28.0898C0.399184 28.0898 0 27.6906 0 27.1996C0 26.7061 0.399184 26.3082 0.890204 26.3082L23.0522 26.3082L23.0522 20.6216C23.0522 20.2616 23.269 19.9371 23.602 19.7988C23.9339 19.6616 24.3171 19.7363 24.5718 19.9922L27.4922 22.9127C28.8575 20.5408 31.2612 18.9833 34.0114 18.7016L34.0114 9.40898C30 8.99265 26.8029 5.79429 26.3865 1.78286L19.5563 1.78286C19.0653 1.78286 18.6661 1.38367 18.6661 0.891429C18.6661 0.399184 19.0653 0 19.5563 0ZM28.1865 1.78163C28.5857 4.8098 30.9845 7.20857 34.0114 7.60775L34.0114 1.78163L28.1865 1.78163Z" fill-rule="evenodd"/>
	</g>
	<defs>
		<clipPath id="clip_1">
			<rect x="-466" y="-1078" width="1920" height="3495" clip-rule="evenodd"/>
		</clipPath>
	</defs>
	<g clip-path="url(#clip_1)">
		<path fill="rgb(119,123,121)" stroke="none" transform="translate(37.873 25.233)" d="M8.35837 4.77551C8.35837 6.75061 6.75061 8.35837 4.77551 8.35837L3.58163 8.35837C1.60776 8.35837 0 6.75061 0 4.77551L0 3.58286C0 1.60776 1.60653 0 3.58163 0L4.77551 0C6.75061 0 8.35837 1.60776 8.35837 3.58286L8.35837 4.77551ZM1.78041 3.58286L1.78041 4.77551C1.78041 5.7698 2.58857 6.57796 3.58163 6.57796L4.77551 6.57796C5.76857 6.57796 6.57673 5.7698 6.57673 4.77551L6.57673 3.58286C6.57673 2.58857 5.7698 1.78041 4.77551 1.78041L3.58163 1.78041C2.58857 1.78041 1.78041 2.58857 1.78041 3.58286Z" fill-rule="evenodd"/>
	</g>
	<defs>
		<clipPath id="clip_2">
			<rect x="-466" y="-1078" width="1920" height="3495" clip-rule="evenodd"/>
		</clipPath>
	</defs>
	<g clip-path="url(#clip_2)">
		<path fill="rgb(119,123,121)" stroke="none" transform="translate(8.35938 25.2343)" d="M0 3.58286C0 1.60776 1.60653 0 3.58163 0L4.77429 0C6.74939 0 8.35714 1.60776 8.35714 3.58286L8.35714 4.77551C8.35714 6.75061 6.75061 8.35837 4.77429 8.35837L3.58163 8.35837C1.60775 8.35837 0 6.75061 0 4.77551L0 3.58286ZM6.57673 4.77551L6.57673 3.58286C6.57673 2.58857 5.76735 1.78041 4.77429 1.78041L3.58163 1.78041C2.58857 1.78041 1.78041 2.58857 1.78041 3.58286L1.78041 4.77551C1.78041 5.7698 2.58857 6.57796 3.58163 6.57796L4.77429 6.57796C5.76857 6.57796 6.57673 5.7698 6.57673 4.77551Z" fill-rule="evenodd"/>
	</g>
	<defs>
		<clipPath id="clip_3">
			<rect x="-466" y="-1078" width="1920" height="3495" clip-rule="evenodd"/>
		</clipPath>
	</defs>
	<g clip-path="url(#clip_3)">
		<path fill="rgb(119,123,121)" stroke="none" transform="translate(22.7129 19.9861)" d="M4.57469 18.851C5.06571 18.851 5.4649 18.4518 5.4649 17.9608L5.4649 16.9273C7.56857 16.5465 9.16163 14.8298 9.16163 12.7714C9.16163 10.7229 7.95673 8.53469 4.57469 8.53469C2.26653 8.53469 1.78286 7.19755 1.78286 6.07837C1.78286 4.72408 3.03429 3.62204 4.57469 3.62204C5.73796 3.62204 6.79224 4.26735 7.1951 5.2298C7.3849 5.68286 7.90898 5.89469 8.36204 5.70612C8.8151 5.5151 9.02694 4.99347 8.83714 4.53918C8.25918 3.16408 6.98326 2.20653 5.4649 1.93102L5.4649 0.891429C5.4649 0.399184 5.06571 0 4.57469 0C4.08245 0 3.68327 0.397959 3.68327 0.891429L3.68327 1.9249C1.58694 2.30939 0 4.0249 0 6.07959C0 8.12694 1.20122 10.3163 4.57347 10.3163C6.89265 10.3163 7.38 11.6522 7.38 12.7727C7.38 14.1269 6.12735 15.2278 4.58816 15.2278C3.4249 15.2278 2.37061 14.5824 1.96653 13.62C1.77429 13.1657 1.24776 12.9563 0.799592 13.1449C0.345306 13.3359 0.134694 13.8588 0.32449 14.3106C0.901224 15.6833 2.17224 16.6371 3.68327 16.9163L3.68327 17.9608C3.68449 18.4518 4.08245 18.851 4.57469 18.851Z"/>
	</g>
	<defs>
		<clipPath id="clip_4">
			<rect x="-466" y="-1078" width="1920" height="3495" clip-rule="evenodd"/>
		</clipPath>
	</defs>
	<g clip-path="url(#clip_4)">
		<path fill="rgb(0,165,80)" stroke="none" transform="translate(0.0996094 0.0231934)" d="M14.0069 43.4327L0.890204 43.4327C0.399184 43.4327 0 43.0347 0 42.5425L0 18.4298C0 17.9376 0.399184 17.5384 0.890204 17.5384C1.38122 17.5384 1.78041 17.9388 1.78041 18.4298L1.78041 22.9507C4.04204 22.658 5.97796 21.2621 6.97837 19.1988L0.260816 12.4813C-0.0869388 12.1335 -0.0869388 11.569 0.260816 11.2213L11.2212 0.260866C11.4759 0.00617221 11.8592 -0.0697462 12.191 0.0673967C12.5241 0.20454 12.7408 0.530254 12.7408 0.890254L12.7408 7.46699C12.7408 7.95801 12.3404 8.35719 11.8494 8.35719C11.3584 8.35719 10.9592 7.95801 10.9592 7.46699L10.9592 3.04046L2.14898 11.8507L10.9592 20.6596L10.9592 16.2343C10.9592 15.7421 11.3584 15.3429 11.8494 15.3429L32.6718 15.3429C33.1629 15.3429 33.562 15.7421 33.562 16.2343C33.562 16.7266 33.1629 17.1258 32.6718 17.1258L12.7408 17.1258L12.7408 22.8111C12.7408 23.1723 12.5241 23.498 12.191 23.6352C12.0808 23.6792 11.9657 23.7025 11.8506 23.7025C11.6192 23.7025 11.3914 23.6131 11.2212 23.4417L8.30082 20.52C6.93429 22.8931 4.53061 24.4507 1.78041 24.7311L1.78041 34.0249C5.79184 34.4413 8.98898 37.6396 9.40531 41.6511L14.0069 41.6511C14.4992 41.6511 14.8984 42.0503 14.8984 42.5425C14.8984 43.0347 14.4992 43.4327 14.0069 43.4327ZM7.60653 41.6523C7.20735 38.6254 4.80857 36.2254 1.78163 35.8249L1.78163 41.6523L7.60653 41.6523Z" fill-rule="evenodd"/>
	</g>
	<defs>
		<clipPath id="clip_5">
			<rect x="-466" y="-1078" width="1920" height="3495" clip-rule="evenodd"/>
		</clipPath>
	</defs>
	<g clip-path="url(#clip_5)">
		<path fill="rgb(119,123,121)" stroke="none" transform="translate(16.5391 6.59998)" d="M0.891429 1.78163L37.0604 1.78163C37.5514 1.78163 37.9518 1.38245 37.9518 0.891429C37.9518 0.399184 37.5527 0 37.0604 0L0.891429 0C0.399184 0 0 0.399184 0 0.891429C3.48021e-14 1.38367 0.399184 1.78163 0.891429 1.78163Z"/>
	</g>
	<defs>
		<clipPath id="clip_6">
			<rect x="-466" y="-1078" width="1920" height="3495" clip-rule="evenodd"/>
		</clipPath>
	</defs>
	<g clip-path="url(#clip_6)">
		<path fill="rgb(119,123,121)" stroke="none" transform="translate(0.0996094 50.4441)" d="M27.1922 0L0.890204 0C0.399184 0 0 0.399184 0 0.890204C0 1.38245 0.399184 1.78163 0.890204 1.78163L27.1922 1.78163C27.6845 1.78163 28.0837 1.38367 28.0837 0.890204C28.0837 0.399184 27.6845 0 27.1922 0Z"/>
	</g>

</svg>